Assignment 3A: Reading Input
…
# Solution from StackOverflow:
# https://stackoverflow.com/questions/1523126/how-to-read-data-when-some-numbers-contain-commas-as-thousand-separator

setClass("num.with.commas")
setAs("character", "num.with.commas", 
        function(from) as.numeric(gsub(",", "", from) ) )

df_text <- read.table("Facebook Friends.txt", skip = 1, header = TRUE, sep = '\t', 
                      skipNul = TRUE, colClasses=c('num.with.commas'))

## Warning in readLines(file, skip): line 1 appears to contain an embedded nul

df_text

## # A tibble: 715 x 22
##    Friend   Age Photos  Tags Albums Gender   Emp Profile Cover Orientation
##     <dbl> <dbl>  <dbl> <dbl>  <dbl>  <dbl> <dbl>   <dbl> <dbl>       <dbl>
##  1      1    57      7    27      5      1     1       1     0           1
##  2      2    42    531   241     19      0     0       0     0           1
##  3      3    42   1396   423     40      0     1       1     0           1
##  4      4    55    394   139     48      0     1       1     1           1
##  5      5    30    916   231     78      1     1       1     1           1
##  6      6    25    241   345      6      1     1       1     1           1
##  7      7    28    138   206     15      1     1       0     1           1
##  8      8    32    167   581     10      1     1       1     0           1
##  9      9    29    922  1702     23      0     1       1     1           1
## 10     10    25    231   209      8      0     1       1     1           1
## #  with 705 more rows, and 12 more variables: Relationship <dbl>, Posts <dbl>,
## #   Replies <dbl>, MidWest <dbl>, Seast <dbl>, West <dbl>, Children <dbl>,
## #   Likes <dbl>, Edu <dbl>, Events <dbl>, USA <dbl>, Friends <dbl>

df_csv <- read.csv("Facebook Friends.csv", skip = 1, header = TRUE, sep = "\t",
                   colClasses=c('num.with.commas'))
df_csv

## # A tibble: 715 x 22
##    Friend   Age Photos X..of.Tags Albums Gender   Emp Profile Cover Orientation
##     <dbl> <dbl>  <dbl>      <dbl>  <dbl>  <dbl> <dbl>   <dbl> <dbl>       <dbl>
##  1      1    57      7         27      5      1     1       1     0           1
##  2      2    42    531        241     19      0     0       0     0           1
##  3      3    42   1396        423     40      0     1       1     0           1
##  4      4    55    394        139     48      0     1       1     1           1
##  5      5    30    916        231     78      1     1       1     1           1
##  6      6    25    241        345      6      1     1       1     1           1
##  7      7    28    138        206     15      1     1       0     1           1
##  8      8    32    167        581     10      1     1       1     0           1
##  9      9    29    922       1702     23      0     1       1     1           1
## 10     10    25    231        209      8      0     1       1     1           1
## #  with 705 more rows, and 12 more variables: Relationship <dbl>, Posts <dbl>,
## #   Replies <dbl>, MidWest <dbl>, Seast <dbl>, West <dbl>, Children <dbl>,
## #   Likes <dbl>, Edu <dbl>, Events <dbl>, USA <dbl>, Friends <dbl>

df_xls <- readWorksheetFromFile("Facebook Friends.xlsx", sheet = 1, startRow = 3)
df_xls

## # A tibble: 715 x 22
##    Friend.   Age Photos X..of.Tags Albums Gender.   Emp Profile Cover
##      <dbl> <dbl>  <dbl>      <dbl>  <dbl>   <dbl> <dbl>   <dbl> <dbl>
##  1       1    57      7         27      5       1     1       1     0
##  2       2    42    531        241     19       0     0       0     0
##  3       3    42   1396        423     40       0     1       1     0
##  4       4    55    394        139     48       0     1       1     1
##  5       5    30    916        231     78       1     1       1     1
##  6       6    25    241        345      6       1     1       1     1
##  7       7    28    138        206     15       1     1       0     1
##  8       8    32    167        581     10       1     1       1     0
##  9       9    29    922       1702     23       0     1       1     1
## 10      10    25    231        209      8       0     1       1     1
## #  with 705 more rows, and 13 more variables: Orientation <dbl>,
## #   Relationship <dbl>, Posts <dbl>, Replies <dbl>, MidWest <dbl>, Seast <dbl>,
## #   West <dbl>, Children <dbl>, Likes <dbl>, Edu <dbl>, Events <dbl>,
## #   USA <dbl>, Friends <dbl>
…
## # A tibble: 6 x 3
##   Gender Posts Friends
##    <dbl> <dbl>   <dbl>
## 1      1     1      68
## 2      0     5     234
## 3      0   186     727
## 4      0     6     437
## 5      1   412     372
## 6      1   543     552

# One Last change - Make the Gender a Factor
df1$Gender <- as.factor(df1$Gender)
df1

## # A tibble: 708 x 3
##    Gender Posts Friends
##    <fct>  <dbl>   <dbl>
##  1 1          1      68
##  2 0          5     234
##  3 0        186     727
##  4 0          6     437
##  5 1        412     372
##  6 1        543     552
##  7 1        254     248
##  8 1        236     875
##  9 0          8     636
## 10 0         11     440
## #  with 698 more rows
…
df2 = df1 %>%
  filter(Posts <= 200 & Friends <= 1000)
df2

## # A tibble: 535 x 3
##    Gender Posts Friends
##    <fct>  <dbl>   <dbl>
##  1 1          1      68
##  2 0          5     234
##  3 0        186     727
##  4 0          6     437
##  5 0          8     636
##  6 0         11     440
##  7 0         21     698
##  8 1         19     789
##  9 0         15     612
## 10 1        195     288
## #  with 525 more rows
…
