Session 5 Assignment
…
Describe your observations in words.

##       date               sessions           users            bounces      
##  Min.   :2020-08-28   Min.   :0.00000   Min.   :0.00000   Min.   :0.0000  
##  1st Qu.:2020-09-04   1st Qu.:0.00000   1st Qu.:0.00000   1st Qu.:0.0000  
##  Median :2020-09-11   Median :0.00000   Median :0.00000   Median :0.0000  
##  Mean   :2020-09-11   Mean   :0.01667   Mean   :0.01806   Mean   :0.0125  
##  3rd Qu.:2020-09-19   3rd Qu.:0.00000   3rd Qu.:0.00000   3rd Qu.:0.0000  
##  Max.   :2020-09-26   Max.   :3.00000   Max.   :3.00000   Max.   :2.0000

Describe the output

create a new dataframe called cum_sesson_totals, with session totals by date

## # A tibble: 30 x 2
##    date       total_sessions
##    <date>              <int>
##  1 2020-08-28              0
##  2 2020-08-29              0
##  3 2020-08-30              0
##  4 2020-08-31              0
##  5 2020-09-01              0
##  6 2020-09-02              0
##  7 2020-09-03              0
##  8 2020-09-04              0
##  9 2020-09-05              0
## 10 2020-09-06              6
## #  with 20 more rows
…
How many days had 0 sessions? Which days? (use cum_sesson_totals)

## [1] 24

## # A tibble: 24 x 2
##    date       total_sessions
##    <date>              <int>
##  1 2020-08-28              0
##  2 2020-08-29              0
##  3 2020-08-30              0
##  4 2020-08-31              0
##  5 2020-09-01              0
##  6 2020-09-02              0
##  7 2020-09-03              0
##  8 2020-09-04              0
##  9 2020-09-05              0
## 10 2020-09-07              0
## #  with 14 more rows
…
create a new dataframe called cum_dayofweek_totals, with session totals by date and dayOfWeek

## # A tibble: 30 x 3
## # Groups:   date [30]
##    date       dayOfWeek total_sessions
##    <date>     <fct>              <int>
##  1 2020-08-28 5                      0
##  2 2020-08-29 6                      0
##  3 2020-08-30 0                      0
##  4 2020-08-31 1                      0
##  5 2020-09-01 2                      0
##  6 2020-09-02 3                      0
##  7 2020-09-03 4                      0
##  8 2020-09-04 5                      0
##  9 2020-09-05 6                      0
## 10 2020-09-06 0                      6
## #  with 20 more rows
…
create a new dataframe called cum_users_totals, with user totals by hour and dayOfWeek

## # A tibble: 177 x 4
## # Groups:   hour, dayOfWeek [168]
##     hour dayOfWeek users total_users
##    <int> <fct>     <int>       <int>
##  1     0 0             0           0
##  2     0 1             0           0
##  3     0 2             0           0
##  4     0 3             0           0
##  5     0 4             0           0
##  6     0 5             0           0
##  7     0 6             0           0
##  8     1 0             0           0
##  9     1 1             0           0
## 10     1 2             0           0
## #  with 167 more rows
…
