Session 5 Assignment
…
Sessions: The max number of sessions in any given hour here was 25, in this case, equal to the number of users. We might see this number be higher than the users on a traditional website; however, we see that each user is essentially visiting it once.

Bounces: The maximum bounce number is 21 showing us that most users are bouncing after a single page is viewed. This particular max value is most likely paired with the high of 25 users, suggesting all but 4 of these bounced after landing on the page.

Session Totals by Date

New data frame for later use, calculating the aggregated number of user sessions by date. This will sum all of the hourly sessions into a single day total.

cum_sesson_totals <- ga %>%
  group_by(date)  %>%
  summarize(total_sessions = sum(sessions), .groups = 'keep')
cum_sesson_totals

## # A tibble: 30 x 2
##    date       total_sessions
##    <date>              <int>
##  1 2020-09-10              0
##  2 2020-09-11              0
##  3 2020-09-12              0
##  4 2020-09-13              0
##  5 2020-09-14              0
##  6 2020-09-15              0
##  7 2020-09-16              0
##  8 2020-09-17              0
##  9 2020-09-18              0
## 10 2020-09-19              0
## #  with 20 more rows
…
Here we can see summary statistics as box plots for each day of the week. We can see that weekend days were the least active, and early in the week were the most active. Monday was the strongest, and each subsequent day after that shows slightly less activity.

User Totals by Hour and Day of Week

cum_user_totals = ga %>%
  select(hour, dayOfWeek, users)  %>%
  group_by(hour, dayOfWeek, users) %>%
  summarize(total_users = sum(users), .groups = 'keep')

cum_user_totals

## # A tibble: 251 x 4
##     hour dayOfWeek users total_users
##    <int> <fct>     <int>       <int>
##  1     0 0             0           0
##  2     0 1             0           0
##  3     0 2             0           0
##  4     0 2             2           2
##  5     0 3             0           0
##  6     0 4             0           0
##  7     0 5             0           0
##  8     0 6             0           0
##  9     1 0             0           0
## 10     1 1             0           0
## #  with 241 more rows
…
