Basic introduction of text analysis in R.
…
An advantage of tidytext format is that once the text has been tidy-ed, regular R functions can be used to analyze it instead of the specialized functions necessary to analyze a Corpus object. We can perform some of the same analyis as above the tidy way as follows.

tidying data

# convert dataframe to tibble
tidy_df <- as_tibble(trumpDf$text)

# the text is itself a dataframe? modify the text column to pull out the text value
tidy_df <- tidy_df %>%
  mutate(text =  tidy_df$value)  %>%
  select(-value)
tidy_df 

## # A tibble: 1,733 x 1
##    text                                                                         
##    <chr>                                                                        
##  1 ....Should take care of our people. It wasnt their fault that the Plague ca
##  2 Just dont see any way Nancy Pelosi and Cryin Chuck Schumer will be willing
##  3 Michelle Fischbach (@FischbachMN7) is running for Congress in Minnesota. She
##  4 .@JimOberweis will be a terrific Congressman for Illinois! A successful busi
##  5 Eric Esshaki (@EsshakiCongress) will be a tremendous advocate for Michigan a
##  6 Paul Junge (@VotePaulJunge) will be a great Congressman for Michigan! He hel
##  7 Jim Marchant (@VoteJimMarchant) will be an incredible Congressman for Nevada
##  8 .@DanRodimer will be an incredible Congressman for Nevada! A former professi
##  9 Congresswoman @EliseStefanik is doing a terrific job for New York! She fierc
## 10 Congressman @BryanSteil is doing a great job for the people of Wisconsin! He
## #  with 1,723 more rows
…
the column name from the data frame containing the text

Converts each word in text to lowercase,

Punctuation is removed: eg: periods, commas etc

tidy_df <- tidy_df %>%
    unnest_tokens(word, text) %>%
    count(word) %>%
    arrange(desc(n))

tidy_df

## # A tibble: 5,448 x 2
##    word      n
##    <chr> <int>
##  1 the    1371
##  2 t.co   1109
##  3 https  1106
##  4 and     902
##  5 to      833
##  6 of      576
##  7 a       564
##  8 in      528
##  9 is      425
## 10 for     419
## #  with 5,438 more rows
…
tidy_df = tidy_df  %>%
  anti_join(stop_words) # stop words

tidy_df = tidy_df %>%
  mutate(stem = wordStem(word))
  #mutate_at("word", funs(wordStem((.), language="en")))  # stemming

#tidy_df %>%
#  count(stem) %>%
#  arrange(desc(n))

tidy_df

## # A tibble: 4,837 x 3
##    word        n stem   
##    <chr>   <int> <chr>  
##  1 biden     195 biden  
##  2 joe       151 joe    
##  3 vote      149 vote   
##  4 people    132 peopl  
##  5 news      101 new    
##  6 fake      100 fake   
##  7 maga       85 maga   
##  8 total      81 total  
##  9 trump      81 trump  
## 10 country    78 countri
## #  with 4,827 more rows
…
