Assignment 10: Text Analysis in R
…
There are a few things that will help with the anaysis. A length value for the headline, as well as breaking up the dates into individual columns.

df3 <- df2 %>%
  mutate(headline_len = str_count(df2$headline)) %>%
  mutate(year = lubridate::year(df2$publish_date)) %>%
  mutate(month = lubridate::month(df2$publish_date)) %>%
  mutate(day = lubridate::day(df2$publish_date))

Reorder the columns to a more logical sequence

df3 <- select(df3, publish_date, year, month, day, headline, headline_len)
df3

## # A tibble: 727,135 x 6
##    publish_date  year month   day headline                          headline_len
##    <date>       <dbl> <dbl> <int> <chr>                                    <int>
##  1 2009-01-01    2009     1     1 2008 deadliest year for us force           48
##  2 2009-01-01    2009     1     1 2008 dubbed wet year for hunter             31
##  3 2009-01-01    2009     1     1 2 israelis injured in danish mal           42
##  4 2009-01-01    2009     1     1 8500 qld homes without power aft           41
##  5 2009-01-01    2009     1     1 about 60 killed in bankgok fire             31
##  6 2009-01-01    2009     1     1 act govt bodies forced to comply           50
##  7 2009-01-01    2009     1     1 act property prices down growth            41
##  8 2009-01-01    2009     1     1 act self govt seen as cost cutti           43
##  9 2009-01-01    2009     1     1 alice police arrest 83 in new ye           47
## 10 2009-01-01    2009     1     1 anger grows at falls festival br           42
## #  with 727,125 more rows
…
An advantage of tidytext format is that once the text has been tidy-ed, regular R functions can be used to analyze it instead of the specialized functions necessary to analyze a Corpus object. We can perform some of the same analyis as above the tidy way as follows.

tidying data

# convert dataframe to tibble
tidy_df <- as_tibble(df3$headline)

# the text is itself a dataframe? modify the text column to pull out the text value
tidy_df <- tidy_df %>%
  mutate(text =  tidy_df$value)  %>%
  select(-value)
tidy_df 

## # A tibble: 727,135 x 1
##    text                                              
##    <chr>                                             
##  1 2008 deadliest year for us forces in afghanistan  
##  2 2008 dubbed wet year for hunter                   
##  3 2 israelis injured in danish mall shooting        
##  4 8500 qld homes without power after storms         
##  5 about 60 killed in bankgok fire                   
##  6 act govt bodies forced to comply with human rights
##  7 act property prices down growth predicted         
##  8 act self govt seen as cost cutting exercise       
##  9 alice police arrest 83 in new year celebrations   
## 10 anger grows at falls festival breath tests        
## #  with 727,125 more rows

break text into tokens using tidytext

The unnest_tokens() function, part of tidytext, performs some automatic text cleaning

The unnest_tokens() function takes 2 arguments: the name of the column where the unique word will be stored the column name from the data frame containing the text Converts each word in text to lowercase, Punctuation is removed: eg: periods, commas etc

tidy_df <- tidy_df %>%
    unnest_tokens(word, text) %>%
    count(word) %>%
    arrange(desc(n))

tidy_df

## # A tibble: 93,470 x 2
##    word       n
##    <chr>  <int>
##  1 to    132405
##  2 in     95031
##  3 for    81904
##  4 of     61627
##  5 on     49266
##  6 the    48455
##  7 over   30573
##  8 at     24468
##  9 a      22441
## 10 with   21898
## #  with 93,460 more rows
…
tidy_df = tidy_df[-grep("\\b\\d+\\b", tidy_df$word),]   # remove all numeric digits
tidy_df = tidy_df[-grep('t.co',  tidy_df$word),]    
tidy_df = tidy_df[-grep('amp',  tidy_df$word),]    

tidy_df = tidy_df  %>%
  anti_join(stop_words) # stop words

## Joining, by = "word"

tidy_df = tidy_df %>%
  mutate(stem = wordStem(word))

tidy_df

## # A tibble: 90,689 x 3
##    word           n stem      
##    <chr>      <int> <chr>     
##  1 police     20893 polic     
##  2 australia  11345 australia 
##  3 court      10668 court     
##  4 australian 10019 australian
##  5 nsw         9715 nsw       
##  6 fire        9448 fire      
##  7 council     8326 council   
##  8 wa          8152 wa        
##  9 sydney      8139 sydnei    
## 10 government  8038 govern    
## #  with 90,679 more rows
…
