Midterm 1
…
EDA for Single UserID and single SessionID

ga %>%
  filter(userID == "0014262055593378383" & sessionID == 1499123682) %>%
  head(n = 50)

## # A tibble: 30 x 13
##    date       userID sessionID session pageviews newVisits transactions visits
##    <date>     <chr>      <int>   <int>     <int>     <int>        <dbl>  <int>
##  1 2017-07-03 00142    1.50e9       4        30        NA            2      1
##  2 2017-07-03 00142    1.50e9       4        30        NA            2      1
##  3 2017-07-03 00142    1.50e9       4        30        NA            2      1
##  4 2017-07-03 00142    1.50e9       4        30        NA            2      1
##  5 2017-07-03 00142    1.50e9       4        30        NA            2      1
##  6 2017-07-03 00142    1.50e9       4        30        NA            2      1
##  7 2017-07-03 00142    1.50e9       4        30        NA            2      1
##  8 2017-07-03 00142    1.50e9       4        30        NA            2      1
##  9 2017-07-03 00142    1.50e9       4        30        NA            2      1
## 10 2017-07-03 00142    1.50e9       4        30        NA            2      1
## #  with 20 more rows, and 5 more variables: totalTransactionRevenue <dbl>,
## #   browser <fct>, deviceCategory <fct>, country <fct>, region <fct>
…
Question #5

What is the total number of transactions generated per browser type ? Results should be in tabular form that shows the aggregated transactions by browser, including those that resulted in 0 transactions.

ga %>%
  distinct() %>%
  dplyr::group_by(browser) %>%
  dplyr::summarise(trans = sum(transactions)) %>%
  arrange(desc(trans))

## # A tibble: 30 x 2
##    browser                                     trans
##    <fct>                                       <dbl>
##  1 Chrome                                       1025
##  2 Safari                                         68
##  3 Firefox                                        13
##  4 Internet Explorer                               7
##  5 Edge                                            2
##  6 Opera                                           2
##  7 (not set)                                       0
##  8 [Use default User-agent string] LIVRENPOCHE     0
##  9 0                                               0
## 10 Amazon Silk                                     0
## #  with 20 more rows
…
