Data 104 Final Project
…
entities<- c("ORG", "PERSON", "GPE", "PRODUCT", "LOC", "WORK",
             "NORP", "FAC", "EVENT", "LANGUAGE", "LAW")

for (e in entities){
  ner %>%
    mutate(type=e) %>%
    filter(entity_type == e) %>%
    group_by(entity, type) %>%
    summarize(count = n(), .groups = "keep") %>%
    arrange(desc(count)) %>%
    print()
  
}

## # A tibble: 475 x 3
## # Groups:   entity, type [475]
##    entity       type  count
##    <chr>        <chr> <int>
##  1 Elon_Musk    ORG      20
##  2 TSLA         ORG      18
##  3 EV           ORG      13
##  4 Nikola_Tesla ORG      11
##  5 FSD          ORG      10
##  6 @Tesla       ORG       8
##  7 TESLA        ORG       8
##  8 Amazon       ORG       5
##  9 Musk         ORG       5
## 10 Apple        ORG       4
## #  with 465 more rows
## # A tibble: 358 x 3
## # Groups:   entity, type [358]
##    entity               type   count
##    <chr>                <chr>  <int>
##  1 Tesla                PERSON     5
##  2 Austin               PERSON     4
##  3 Michael_Burry        PERSON     4
##  4 Elon_Musk            PERSON     3
##  5 Thomas_Edison        PERSON     3
##  6                    PERSON     2
##  7 _                PERSON     2
##  8 Edison               PERSON     2
##  9 Electrek             PERSON     2
## 10 Mitsubishi_Outlander PERSON     2
## #  with 348 more rows
## # A tibble: 105 x 3
## # Groups:   entity, type [105]
##    entity     type  count
##    <chr>      <chr> <int>
##  1 Texas      GPE      20
##  2 California GPE      12
##  3 India      GPE      10
##  4 U.S.       GPE      10
##  5 US         GPE       9
##  6 China      GPE       3
##  7 Germany    GPE       3
##  8 Teslas     GPE       3
##  9 @dburkland GPE       2
## 10 Bitcoin    GPE       2
## #  with 95 more rows
## # A tibble: 54 x 3
## # Groups:   entity, type [54]
##    entity                                                           type   count
##    <chr>                                                            <chr>  <int>
##  1 #                                                                PRODU    18
##  2 Tesla_Model_3                                                    PRODU     4
##  3 Supercharger                                                     PRODU     3
##  4 Elon                                                             PRODU     2
##  5 Model_3                                                          PRODU     2
##  6 Model_Y                                                          PRODU     2
##  7 Tesla                                                            PRODU     2
##  8 @212_artist                                                      PRODU     1
##  9 @axutislaura_Acho_que                                            PRODU     1
## 10 @DirtyTesla_@Kirk_Tesla_@greentheonly_@tesletter_@tesla_raj_@el PRODU     1
## #  with 44 more rows
…
##  4 Centennial_Park            LOC       1
##  5 des_pilleurs               LOC       1
##  6 Di_Benzinga_Italia         LOC       1
##  7 earth                      LOC       1
##  8 el_mejor                   LOC       1
##  9 N_America                  LOC       1
## 10 Schweiz                    LOC       1
## 11 Silicon_-_Valley_-_Startup LOC       1
## 12 Silicon_Valley             LOC       1
## 13 the_moon_space             LOC       1
## 14 the_North_Pole             LOC       1
## 15 the_Silicon_Valley         LOC       1
## 16 Walmart                    LOC       1
## 17 Zuid_Europa                LOC       1
## # A tibble: 21 x 3
## # Groups:   entity, type [21]
##    entity                                                 type  count
##    <chr>                                                  <chr> <int>
##  1 "Tesla"                                                WORK     18
##  2 "Teslaquila"                                           WORK      2
##  3 "@latimes_Nope"                                        WORK      1
##  4 "@Tesla_Equally"                                       WORK      1
##  5 "Demolition_Man_because_@Tesla"                        WORK      1
##  6 "Google_is_only_a_search_engine"                       WORK      1
##  7 "https://t.co/sqFy8AzOs8_\n\n"                         WORK      1
##  8 "La_Tesla_Model"                                       WORK      1
##  9 "Martin_Tripp_Lost_His_Defamation_Suit_and_Had_to_Pay" WORK      1
## 10 "Netflix"                                              WORK      1
## #  with 11 more rows
## # A tibble: 33 x 3
## # Groups:   entity, type [33]
##    entity           type  count
##    <chr>            <chr> <int>
##  1 Chinese          NORP      4
##  2 American         NORP      3
##  3 Taycan           NORP      3
##  4 Japanese         NORP      2
##  5 @ggiserman       NORP      1
##  6 @LorenaSGonzalez NORP      1
##  7 @TCDDemiryollari NORP      1
##  8 African          NORP      1
##  9 Americans        NORP      1
## 10 Amish            NORP      1
## #  with 23 more rows
## # A tibble: 21 x 3
## # Groups:   entity, type [21]
##    entity                               type  count
##    <chr>                                <chr> <int>
##  1 6_milhes_de_seguidores              FAC       1
##  2 Black_https://t.co/sE58Y4J798        FAC       1
##  3 de_kobaltmijnen                      FAC       1
##  4 de_l'intelligence_et_de_l'innovation FAC       1
##  5 du_kommer_inta                       FAC       1
##  6 el_futuro_es                         FAC       1
##  7 Gay_Pride                            FAC       1
##  8 https://t.co/ot3mRBZWCL              FAC       1
##  9 Iris_Guaba                           FAC       1
## 10 la_@NHTSAgov                         FAC       1
## #  with 11 more rows
…
