Assignment 12
…
entities<- c("PERSON", "NORP", "ORG", "GPE", "PRODUCT", "WORK",
             "LOC", "FAC", "EVENT", "LAW", "LANGUAGE")

for (e in entities){
  ner %>%
    mutate(type=e) %>%
    filter(entity_type == e) %>%
    group_by(entity, type) %>%
    summarize(count = n(), .groups = "keep") %>%
    arrange(desc(count)) %>%
    print()
  
}

## # A tibble: 2,374 x 3
## # Groups:   entity, type [2,374]
##    entity                  type   count
##    <chr>                   <chr>  <int>
##  1 Jesus                   PERSON   184
##  2 Sun                     PERSON    48
##  3 Mary                    PERSON    43
##  4 Nntp_-_Posting_-_Host_: PERSON    42
##  5 Chris_BeHanna           PERSON    32
##  6 God                     PERSON    26
##  7 Paul                    PERSON    26
##  8 Morris                  PERSON    22
##  9 Ed                      PERSON    21
## 10 Alomar                  PERSON    17
## #  with 2,364 more rows
## # A tibble: 180 x 3
## # Groups:   entity, type [180]
##    entity     type  count
##    <chr>      <chr> <int>
##  1 Christians NORP    145
##  2 Christian  NORP    121
##  3 Jewish     NORP     91
##  4 Catholic   NORP     25
##  5 Indians    NORP     25
##  6 Jews       NORP     24
##  7 Romans     NORP     16
##  8 christians NORP     15
##  9 Catholics  NORP     14
## 10 DL         NORP     13
## #  with 170 more rows
## # A tibble: 1,565 x 3
## # Groups:   entity, type [1,565]
##    entity       type  count
##    <chr>        <chr> <int>
##  1 Cubs         ORG      63
##  2 Braves       ORG      59
##  3 DoD          ORG      58
##  4 BMW          ORG      57
##  5 Christianity ORG      54
##  6 Christ       ORG      41
##  7 Yankees      ORG      34
##  8 Honda        ORG      33
##  9 Church       ORG      27
## 10 Phillies     ORG      27
## #  with 1,555 more rows
## # A tibble: 521 x 3
## # Groups:   entity, type [521]
##    entity     type  count
##    <chr>      <chr> <int>
##  1 Canada     GPE      37
##  2 Alomar     GPE      33
##  3 Toronto    GPE      31
##  4 New_York   GPE      28
##  5 Boston     GPE      26
##  6 UK         GPE      26
##  7 Athens     GPE      23
##  8 Pittsburgh GPE      23
##  9 San_Diego  GPE      23
## 10 USA        GPE      23
## #  with 511 more rows
## # A tibble: 152 x 3
## # Groups:   entity, type [152]
##    entity                    type    count
##    <chr>                     <chr>   <int>
##  1 0002                      PRODUCT     6
##  2 Jody.P.Levine@hydro.on.ca PRODUCT     6
##  3 Sabbath                   PRODUCT     6
##  4 Alicea                    PRODUCT     5
##  5 VAX_/_VMS                 PRODUCT     5
##  6 Wrigley                   PRODUCT     5
##  7 750SS                     PRODUCT     4
##  8 900SS                     PRODUCT     4
##  9 rf200                     PRODUCT     4
## 10 Scripture                 PRODUCT     4
## #  with 142 more rows
## # A tibble: 231 x 3
## # Groups:   entity, type [231]
##    entity                          type  count
##    <chr>                           <chr> <int>
##  1 Bible                           WORK     89
##  2 DoD                             WORK     16
##  3 Scripture                       WORK     10
##  4 The_Grateful_Dead               WORK      8
##  5 Almost_Cursed_the_Jays_'_Kirsch WORK      6
##  6 The_Sport_of_Kings              WORK      5
##  7 Fight_Your_Ticket               WORK      4
##  8 However_Teel                    WORK      4
##  9 Real_Genius                     WORK      4
## 10 The_Eternal_Champion            WORK      4
## #  with 221 more rows
## # A tibble: 71 x 3
## # Groups:   entity, type [71]
##    entity         type  count
##    <chr>          <chr> <int>
##  1 East           LOC      17
##  2 earth          LOC      12
##  3 Easter         LOC       7
##  4 Earth          LOC       6
##  5 West           LOC       6
##  6 the_NL_East    LOC       5
##  7 Marlins        LOC       4
##  8 Meddle         LOC       4
##  9 AL_East        LOC       3
## 10 the_East_coast LOC       3
## #  with 61 more rows
## # A tibble: 77 x 3
## # Groups:   entity, type [77]
##    entity                      type  count
##    <chr>                       <chr> <int>
##  1 "the_Immaculate_Conception" FAC       7
##  2 "the_Cobra_Lock"            FAC       5
##  3 "Camden_Yards"              FAC       4
##  4 "Fenway_Park"               FAC       3
##  5 "Stick"                     FAC       3
##  6 "Vancouver"                 FAC       3
##  7 "Associates_\t\t\t\t   "    FAC       2
##  8 "Black_Sabbath_'s"          FAC       2
##  9 "Candlestick_Park"          FAC       2
## 10 "Dodger_Stadium"            FAC       2
## #  with 67 more rows
## # A tibble: 41 x 3
## # Groups:   entity, type [41]
##    entity                                                            type  count
##    <chr>                                                             <chr> <int>
##  1 "Series"                                                          EVENT     4
##  2 "the_World_Series"                                                EVENT     4
##  3 "World_Series"                                                    EVENT     4
##  4 "Cup"                                                             EVENT     2
##  5 "KotRB_         _|1958_AJS_500_C_/_S_-King_Rat_                  EVENT     2
##  6 "Sabbath"                                                         EVENT     2
##  7 "the_K_series"                                                    EVENT     2
##  8 "THE_LOST_YEARS_OF_JESUS"                                         EVENT     2
##  9 "World_War_II"                                                    EVENT     2
## 10 "(_The_True_Wild_Thing_)"                                         EVENT     1
## #  with 31 more rows
…
