Text analysis of news headlines.
…
Named entity recognition with spaCy

https://cran.r-project.org/web/packages/spacyr/vignettes/using_spacyr.html

# convert to TIF standard required by spacy
tidy_df = tidy_df %>%
  mutate(doc_id = paste0("doc", row_number())) %>%
  select(doc_id, everything())
tidy_df

## # A tibble: 2,000 x 2
##    doc_id text                                                           
##    <chr>  <chr>                                                          
##  1 doc1   best running shoe for you depends on your weight research finds
##  2 doc2   no rain respite for far north qld fires                        
##  3 doc3   turnbull praises rudd's vision; baffled over leadership        
##  4 doc4   police bullet killed drug raid officer                         
##  5 doc5   hundreds the war dead at ceremonies around                     
##  6 doc6   riverina rice harvest                                          
##  7 doc7   abattoir proposed david cox                                    
##  8 doc8   williamtown priority must be military baldwin                  
##  9 doc9   grower wins award to help put eels in the rice                 
## 10 doc10  retirement village angst                                       
## #  with 1,990 more rows

# parse name-entities
parsedtxt <- spacy_parse(tidy_df, type = "all")

ner = entity_extract(parsedtxt)  %>%
  arrange(entity_type)
ner 

## # A tibble: 1,299 x 4
##    doc_id  sentence_id entity                       entity_type
##    <chr>         <int> <chr>                        <chr>      
##  1 doc17             1 black_saturday               EVENT      
##  2 doc273            1 world_science_festival       EVENT      
##  3 doc449            1 the_great_war                EVENT      
##  4 doc1066           1 world_cup                    EVENT      
##  5 doc1374           1 world_cup                    EVENT      
##  6 doc1389           1 world_cup                    EVENT      
##  7 doc1741           1 olympics                     EVENT      
##  8 doc45             1 379th                        FAC        
##  9 doc423            1 fairfield_road_rage_incident FAC        
## 10 doc474            1 newcastle_refugee_centre     FAC        
## #  with 1,289 more rows
…
entities<- c("PERSON", "NORP", "ORG", "GPE", "PRODUCT")

for (e in entities){
  ner %>%
    mutate(type=e) %>%
    filter(entity_type == e) %>%
    group_by(entity, type) %>%
    summarize(count = n()) %>%
    arrange(desc(count)) %>%
    print()
  
}

## # A tibble: 396 x 3
## # Groups:   entity [396]
##    entity          type   count
##    <chr>           <chr>  <int>
##  1 donald_trump    PERSON     6
##  2 darwin          PERSON     5
##  3 barnett         PERSON     3
##  4 bush            PERSON     3
##  5 nick_kyrgios    PERSON     3
##  6 bob_day         PERSON     2
##  7 boris_johnson   PERSON     2
##  8 colin_barnett   PERSON     2
##  9 donald          PERSON     2
## 10 hillary_clinton PERSON     2
## #  with 386 more rows
## # A tibble: 53 x 3
## # Groups:   entity [53]
##    entity      type  count
##    <chr>       <chr> <int>
##  1 australian  NORP     18
##  2 chinese     NORP      6
##  3 greens      NORP      5
##  4 russian     NORP      5
##  5 tasmanian   NORP      5
##  6 australians NORP      3
##  7 evans       NORP      3
##  8 french      NORP      3
##  9 german      NORP      3
## 10 indian      NORP      3
## #  with 43 more rows
## # A tibble: 377 x 3
## # Groups:   entity [377]
##    entity type  count
##    <chr>  <chr> <int>
##  1 govt   ORG       7
##  2 nsw    ORG       5
##  3 perth  ORG       4
##  4 un     ORG       4
##  5 epa    ORG       3
##  6 eu     ORG       3
##  7 labor  ORG       3
##  8 qantas ORG       3
##  9 qld    ORG       3
## 10 sa     ORG       3
## #  with 367 more rows
## # A tibble: 140 x 3
## # Groups:   entity [140]
##    entity      type  count
##    <chr>       <chr> <int>
##  1 australia   GPE      26
##  2 china       GPE      19
##  3 us          GPE       9
##  4 new_zealand GPE       7
##  5 canberra    GPE       6
##  6 tasmania    GPE       6
##  7 fiji        GPE       5
##  8 india       GPE       5
##  9 indonesia   GPE       5
## 10 paris       GPE       5
## #  with 130 more rows
…
