Getting started with Twitter
…
## # A tibble: 2 x 2
##   is_quote     n
##   <lgl>    <int>
## 1 FALSE      196
## 2 TRUE         4

print('count of replies tweets')

## [1] "count of replies tweets"

da_tweets %>%
  dplyr::count(da_tweets$reply_to_screen_name)

## # A tibble: 76 x 2
##    `da_tweets$reply_to_screen_name`     n
##    <chr>                            <int>
##  1 abcnews                              1
##  2 ACMcCosker                           1
##  3 alvlebedev                           1
##  4 AmereihnCarolyn                      1
##  5 armorblox                            1
##  6 bdavidsonlamb                        1
##  7 BefittingFacts                       1
##  8 bennedose                            1
##  9 Beyondlostcause                      1
## 10 BlackPRWire                          1
## #  with 66 more rows
…
get_trends()

Get Twitter trends data. Trends are keywords, events, topics that are currently popular

trends_available()

Retrieve available trends

trends <- trends_available()
trends

## # A tibble: 467 x 8
##    name    url             parentid country   woeid countryCode  code place_type
##    <chr>   <chr>              <int> <chr>     <int> <chr>       <int> <chr>     
##  1 Worldw http://where.y        0 ""            1 <NA>           19 Supername 
##  2 Winnip http://where.y 23424775 "Canada"   2972 CA              7 Town      
##  3 Ottawa  http://where.y 23424775 "Canada"   3369 CA              7 Town      
##  4 Quebec  http://where.y 23424775 "Canada"   3444 CA              7 Town      
##  5 Montre http://where.y 23424775 "Canada"   3534 CA              7 Town      
##  6 Toronto http://where.y 23424775 "Canada"   4118 CA              7 Town      
##  7 Edmont http://where.y 23424775 "Canada"   8676 CA              7 Town      
##  8 Calgary http://where.y 23424775 "Canada"   8775 CA              7 Town      
##  9 Vancou http://where.y 23424775 "Canada"   9807 CA              7 Town      
## 10 Birmin http://where.y 23424975 "United  12723 GB              7 Town      
## #  with 457 more rows
…
