2020 Election Analysis using Twitter
…
Plotting the three different values on a log scale, you see exactly those observations. The number of total retweets is steadily increasing overtime and Bidens original tweet activity is reasonably consistent.

Comparing the Same Activity, but for Trump

df_trump <- timelinesdf %>%
  filter(screen_name == 'realDonaldTrump' & created_at > '2020-02-01') %>%
  select(created_at, favorite_count, retweet_count, text) %>%
  arrange(desc(favorite_count))

df_trump

## # A tibble: 3,178 x 4
##    created_at          favorite_count retweet_count text                        
##    <dttm>                       <int>         <int> <chr>                       
##  1 2020-10-02 04:54:06        1879617        412896 Tonight, @FLOTUS and I test
##  2 2020-10-03 03:31:34        1222428        140077 Going welI, I think! Thank 
##  3 2020-10-02 22:31:56         761328        131318 https://t.co/B4H105KVSs     
##  4 2020-10-03 22:51:58         717269        146377 https://t.co/gvIPuYtTZG     
##  5 2020-10-03 17:46:48         651408         93668 OUR GREAT USA WANTS &amp; N
##  6 2020-10-03 17:19:38         650838        100519 Doctors, Nurses and ALL at 
##  7 2020-10-08 02:57:08         637298         89306 Mike Pence WON BIG!         
##  8 2020-10-14 01:50:27         626923        124884 https://t.co/wJN4zv0y8O     
##  9 2020-10-06 14:41:06         616856         73896 FEELING GREAT!              
## 10 2020-10-04 19:51:14         600563         91104 I really appreciate all of 
## #  with 3,168 more rows
…
